[
  {
    "id": "e52b4f20-76d3-438f-8b82-acd1b62f5abe",
    "data": [
      {
        "text": "How much ",
        "userDefined": false
      },
      {
        "text": "carbon",
        "alias": "emission_type",
        "meta": "@emission_type",
        "userDefined": false
      },
      {
        "text": " emissions ",
        "userDefined": false
      },
      {
        "text": "are",
        "meta": "@sys.ignore",
        "userDefined": false
      },
      {
        "text": " produced by ",
        "userDefined": false
      },
      {
        "text": "300",
        "alias": "quantity",
        "meta": "@sys.number",
        "userDefined": true
      },
      {
        "text": " tons of electricity consumed in ",
        "userDefined": false
      },
      {
        "text": "China",
        "alias": "geo_country",
        "meta": "@sys.geo-country",
        "userDefined": false
      }
    ],
    "isTemplate": false,
    "count": 0,
    "updated": 0
  },
  {
    "id": "f6ca899a-cc61-4df5-8370-8be52e429ff4",
    "data": [
      {
        "text": "How much emissions ",
        "userDefined": false
      },
      {
        "text": "are",
        "meta": "@sys.ignore",
        "userDefined": false
      },
      {
        "text": " produced by ",
        "userDefined": false
      },
      {
        "text": "22",
        "alias": "quantity",
        "meta": "@sys.number",
        "userDefined": false
      },
      {
        "text": " units of electricity consumed in ",
        "userDefined": false
      },
      {
        "text": "Canada",
        "alias": "geo_country",
        "meta": "@sys.geo-country",
        "userDefined": false
      }
    ],
    "isTemplate": false,
    "count": 0,
    "updated": 0
  },
  {
    "id": "bd12fe73-7e92-47b5-a4e1-f6de777e2cd1",
    "data": [
      {
        "text": "Emissions produced by consumption of ",
        "userDefined": false
      },
      {
        "text": "216",
        "alias": "quantity",
        "meta": "@sys.number",
        "userDefined": false
      },
      {
        "text": " units of electricity in ",
        "userDefined": false
      },
      {
        "text": "Afghanistan",
        "alias": "geo_country",
        "meta": "@sys.geo-country",
        "userDefined": false
      }
    ],
    "isTemplate": false,
    "count": 0,
    "updated": 0
  },
  {
    "id": "b63eb5ee-d9bf-4804-9a77-8fa4a7f7f680",
    "data": [
      {
        "text": "emissions ",
        "userDefined": false
      },
      {
        "text": "for",
        "meta": "@sys.ignore",
        "userDefined": false
      },
      {
        "text": " electricity used in ",
        "userDefined": false
      },
      {
        "text": "America",
        "alias": "geo_country",
        "meta": "@sys.geo-country",
        "userDefined": false
      }
    ],
    "isTemplate": false,
    "count": 0,
    "updated": 0
  },
  {
    "id": "430c8ff9-e556-4517-bec8-ae58f6f47661",
    "data": [
      {
        "text": "carbon",
        "alias": "emission_type",
        "meta": "@emission_type",
        "userDefined": false
      },
      {
        "text": " emissions for electricity consumed in ",
        "userDefined": false
      },
      {
        "text": "Canada",
        "alias": "geo_country",
        "meta": "@sys.geo-country",
        "userDefined": false
      }
    ],
    "isTemplate": false,
    "count": 0,
    "updated": 0
  },
  {
    "id": "647028df-6810-4bee-b301-dd4d5137c2b0",
    "data": [
      {
        "text": "carbon",
        "alias": "emission_type",
        "meta": "@emission_type",
        "userDefined": false
      },
      {
        "text": " emissions for ",
        "userDefined": false
      },
      {
        "text": "100",
        "alias": "quantity",
        "meta": "@sys.number",
        "userDefined": false
      },
      {
        "text": " units of electricity consumed in ",
        "userDefined": false
      },
      {
        "text": "India",
        "alias": "geo_country",
        "meta": "@sys.geo-country",
        "userDefined": false
      }
    ],
    "isTemplate": false,
    "count": 0,
    "updated": 0
  },
  {
    "id": "b16b2d2e-909c-47f8-85db-9f706800a5d4",
    "data": [
      {
        "text": "how much emissions are produced due to ",
        "userDefined": false
      },
      {
        "text": "1.545",
        "alias": "quantity",
        "meta": "@sys.number",
        "userDefined": false
      },
      {
        "text": " kwh of electricty consumed",
        "userDefined": false
      }
    ],
    "isTemplate": false,
    "count": 0,
    "updated": 0
  }
]