[
  {
    "id": "e5afe81e-1144-4602-b6c4-8ffa4e41c5b3",
    "data": [
      {
        "text": "Carbon",
        "alias": "emission_type",
        "meta": "@emission_type",
        "userDefined": false
      },
      {
        "text": " emissions ",
        "userDefined": false
      },
      {
        "text": "for",
        "meta": "@sys.ignore",
        "userDefined": false
      },
      {
        "text": " ",
        "userDefined": false
      },
      {
        "text": "10",
        "alias": "quantity",
        "meta": "@sys.number",
        "userDefined": true
      },
      {
        "text": " litres of ",
        "userDefined": false
      },
      {
        "text": "petrol",
        "alias": "fuel_type",
        "meta": "@fuels",
        "userDefined": false
      }
    ],
    "isTemplate": false,
    "count": 0,
    "updated": 0
  },
  {
    "id": "86e3c963-36a7-4735-95a7-ed77aac44860",
    "data": [
      {
        "text": "Can you tell me about ",
        "userDefined": false
      },
      {
        "text": "the",
        "meta": "@sys.ignore",
        "userDefined": false
      },
      {
        "text": " ",
        "userDefined": false
      },
      {
        "text": "carbon",
        "alias": "emission_type",
        "meta": "@emission_type",
        "userDefined": false
      },
      {
        "text": " emissions produced by using ",
        "userDefined": false
      },
      {
        "text": "10",
        "alias": "quantity",
        "meta": "@sys.number",
        "userDefined": true
      },
      {
        "text": " kg ",
        "userDefined": false
      },
      {
        "text": "CNG",
        "alias": "fuel_type",
        "meta": "@fuels",
        "userDefined": false
      }
    ],
    "isTemplate": false,
    "count": 0,
    "updated": 0
  },
  {
    "id": "1be81f93-7d57-41a4-9bbc-858c9d766cfb",
    "data": [
      {
        "text": "emissions caused by ",
        "userDefined": false
      },
      {
        "text": "the",
        "meta": "@sys.ignore",
        "userDefined": false
      },
      {
        "text": " use of ",
        "userDefined": false
      },
      {
        "text": "10",
        "alias": "quantity",
        "meta": "@sys.number",
        "userDefined": true
      },
      {
        "text": " Litres of ",
        "userDefined": false
      },
      {
        "text": "CNG",
        "alias": "fuel_type",
        "meta": "@fuels",
        "userDefined": false
      }
    ],
    "isTemplate": false,
    "count": 0,
    "updated": 0
  },
  {
    "id": "dd620d22-551a-4dd6-a1fb-cc9807528b5b",
    "data": [
      {
        "text": "What are ",
        "userDefined": false
      },
      {
        "text": "the",
        "meta": "@sys.ignore",
        "userDefined": false
      },
      {
        "text": " ",
        "userDefined": false
      },
      {
        "text": "carbon",
        "alias": "emission_type",
        "meta": "@emission_type",
        "userDefined": false
      },
      {
        "text": " emissions produced ",
        "userDefined": false
      },
      {
        "text": "for",
        "meta": "@sys.ignore",
        "userDefined": false
      },
      {
        "text": " ",
        "userDefined": false
      },
      {
        "text": "5",
        "alias": "quantity",
        "meta": "@sys.number",
        "userDefined": true
      },
      {
        "text": " Litres of ",
        "userDefined": false
      },
      {
        "text": "petrol",
        "alias": "fuel_type",
        "meta": "@fuels",
        "userDefined": false
      }
    ],
    "isTemplate": false,
    "count": 0,
    "updated": 0
  },
  {
    "id": "dbc09444-5dce-4e3c-a026-d4721c77d332",
    "data": [
      {
        "text": "carbon",
        "alias": "emission_type",
        "meta": "@emission_type",
        "userDefined": false
      },
      {
        "text": " emissions ",
        "userDefined": false
      },
      {
        "text": "for",
        "meta": "@sys.ignore",
        "userDefined": false
      },
      {
        "text": " ",
        "userDefined": false
      },
      {
        "text": "4",
        "alias": "quantity",
        "meta": "@sys.number",
        "userDefined": false
      },
      {
        "text": " L of ",
        "userDefined": false
      },
      {
        "text": "E 10",
        "alias": "fuel_type",
        "meta": "@fuels",
        "userDefined": false
      }
    ],
    "isTemplate": false,
    "count": 0,
    "updated": 0
  },
  {
    "id": "49eb4c5d-2cbd-4a09-a3b8-420b1d110e5c",
    "data": [
      {
        "text": "emissions ",
        "userDefined": false
      },
      {
        "text": "for",
        "meta": "@sys.ignore",
        "userDefined": false
      },
      {
        "text": " ",
        "userDefined": false
      },
      {
        "text": "29",
        "alias": "quantity",
        "meta": "@sys.number",
        "userDefined": false
      },
      {
        "text": " kg ",
        "userDefined": false
      },
      {
        "text": "CNG",
        "alias": "fuel_type",
        "meta": "@fuels",
        "userDefined": false
      }
    ],
    "isTemplate": false,
    "count": 0,
    "updated": 0
  },
  {
    "id": "96c1017d-f0a4-4de3-9096-f899c6c3cf35",
    "data": [
      {
        "text": "carbon",
        "alias": "emission_type",
        "meta": "@emission_type",
        "userDefined": false
      },
      {
        "text": " emissions ",
        "userDefined": false
      },
      {
        "text": "for",
        "meta": "@sys.ignore",
        "userDefined": false
      },
      {
        "text": " consumption of ",
        "userDefined": false
      },
      {
        "text": "3",
        "alias": "quantity",
        "meta": "@sys.number",
        "userDefined": false
      },
      {
        "text": " litres ",
        "userDefined": false
      },
      {
        "text": "Diesel",
        "alias": "fuel_type",
        "meta": "@fuels",
        "userDefined": false
      }
    ],
    "isTemplate": false,
    "count": 0,
    "updated": 0
  },
  {
    "id": "7c72cd9f-c5bc-4a0d-9d87-acd6ada4d760",
    "data": [
      {
        "text": "emissions ",
        "userDefined": false
      },
      {
        "text": "due",
        "meta": "@sys.ignore",
        "userDefined": false
      },
      {
        "text": " ",
        "userDefined": false
      },
      {
        "text": "to",
        "meta": "@sys.ignore",
        "userDefined": false
      },
      {
        "text": " consumption of ",
        "userDefined": false
      },
      {
        "text": "32.1",
        "alias": "quantity",
        "meta": "@sys.number",
        "userDefined": false
      },
      {
        "text": " Litres ",
        "userDefined": false
      },
      {
        "text": "petrol",
        "alias": "fuel_type",
        "meta": "@fuels",
        "userDefined": false
      }
    ],
    "isTemplate": false,
    "count": 0,
    "updated": 0
  }
]