[
  {
    "id": "6094561d-3253-44f8-8686-f11bd17e4487",
    "data": [
      {
        "text": "Emissions caused ",
        "userDefined": false
      },
      {
        "text": "due",
        "meta": "@sys.ignore",
        "userDefined": false
      },
      {
        "text": " ",
        "userDefined": false
      },
      {
        "text": "to",
        "meta": "@sys.ignore",
        "userDefined": false
      },
      {
        "text": " a travel from ",
        "userDefined": false
      },
      {
        "text": "New York",
        "alias": "origin",
        "meta": "@sys.geo-city",
        "userDefined": true
      },
      {
        "text": " ",
        "userDefined": false
      },
      {
        "text": "to",
        "meta": "@sys.ignore",
        "userDefined": false
      },
      {
        "text": " ",
        "userDefined": false
      },
      {
        "text": "Mississippi",
        "alias": "destination",
        "meta": "@sys.geo-city",
        "userDefined": true
      },
      {
        "text": " by train",
        "userDefined": false
      }
    ],
    "isTemplate": false,
    "count": 0,
    "updated": 0
  },
  {
    "id": "7221c6f1-d15f-484b-b2d8-7c4e713b1d31",
    "data": [
      {
        "text": "Carbon",
        "alias": "emission_type",
        "meta": "@emission_type",
        "userDefined": false
      },
      {
        "text": " Emissions released by a Train journey ",
        "userDefined": false
      },
      {
        "text": "to",
        "meta": "@sys.ignore",
        "userDefined": false
      },
      {
        "text": " ",
        "userDefined": false
      },
      {
        "text": "New Delhi",
        "alias": "destination",
        "meta": "@sys.geo-city",
        "userDefined": true
      },
      {
        "text": " with ",
        "userDefined": false
      },
      {
        "text": "1301",
        "alias": "passengers",
        "meta": "@sys.number",
        "userDefined": false
      },
      {
        "text": " passengers onboard?",
        "userDefined": false
      }
    ],
    "isTemplate": false,
    "count": 0,
    "updated": 0
  },
  {
    "id": "e53aeba0-7b5c-46b7-8151-7da1273f8f94",
    "data": [
      {
        "text": "Emissions produced by a travel between ",
        "userDefined": false
      },
      {
        "text": "New York",
        "alias": "flight_airports",
        "meta": "@flight_airports",
        "userDefined": false
      },
      {
        "text": " ",
        "userDefined": false
      },
      {
        "text": "to",
        "meta": "@sys.ignore",
        "userDefined": false
      },
      {
        "text": " ",
        "userDefined": false
      },
      {
        "text": "Boston",
        "alias": "destination",
        "meta": "@sys.geo-city",
        "userDefined": true
      },
      {
        "text": " by train",
        "userDefined": false
      }
    ],
    "isTemplate": false,
    "count": 0,
    "updated": 0
  },
  {
    "id": "506fe5f9-d7e5-40df-8505-8ff288cb5aec",
    "data": [
      {
        "text": "how much emissions ",
        "userDefined": false
      },
      {
        "text": "are",
        "meta": "@sys.ignore",
        "userDefined": false
      },
      {
        "text": " produced by a train journey from ",
        "userDefined": false
      },
      {
        "text": "New York",
        "alias": "origin",
        "meta": "@sys.geo-city",
        "userDefined": true
      },
      {
        "text": " ",
        "userDefined": false
      },
      {
        "text": "to",
        "meta": "@sys.ignore",
        "userDefined": false
      },
      {
        "text": " ",
        "userDefined": false
      },
      {
        "text": "Seattle",
        "alias": "destination",
        "meta": "@sys.geo-city",
        "userDefined": true
      },
      {
        "text": " with ",
        "userDefined": false
      },
      {
        "text": "1637",
        "alias": "passengers",
        "meta": "@sys.number",
        "userDefined": false
      },
      {
        "text": " passengers",
        "userDefined": false
      }
    ],
    "isTemplate": false,
    "count": 0,
    "updated": 0
  },
  {
    "id": "809f9a45-b11f-4f2c-be8f-005c89c56cbf",
    "data": [
      {
        "text": "carbon",
        "alias": "emission_type",
        "meta": "@emission_type",
        "userDefined": false
      },
      {
        "text": " emissions ",
        "userDefined": false
      },
      {
        "text": "due",
        "meta": "@sys.ignore",
        "userDefined": false
      },
      {
        "text": " ",
        "userDefined": false
      },
      {
        "text": "to",
        "meta": "@sys.ignore",
        "userDefined": false
      },
      {
        "text": " train ",
        "userDefined": false
      },
      {
        "text": "journey",
        "meta": "@sys.ignore",
        "userDefined": false
      },
      {
        "text": " to ",
        "userDefined": false
      },
      {
        "text": "Bangalore",
        "alias": "destination",
        "meta": "@sys.geo-city",
        "userDefined": false
      },
      {
        "text": " with ",
        "userDefined": false
      },
      {
        "text": "321",
        "alias": "passengers",
        "meta": "@sys.number",
        "userDefined": false
      },
      {
        "text": " passengers",
        "userDefined": false
      }
    ],
    "isTemplate": false,
    "count": 0,
    "updated": 0
  },
  {
    "id": "e7923a3b-28fe-4cad-8c5c-f321b85a6536",
    "data": [
      {
        "text": "carbon",
        "alias": "emission_type",
        "meta": "@emission_type",
        "userDefined": false
      },
      {
        "text": " emissions ",
        "userDefined": false
      },
      {
        "text": "due",
        "meta": "@sys.ignore",
        "userDefined": false
      },
      {
        "text": " ",
        "userDefined": false
      },
      {
        "text": "to",
        "meta": "@sys.ignore",
        "userDefined": false
      },
      {
        "text": " train ",
        "userDefined": false
      },
      {
        "text": "journey",
        "meta": "@sys.ignore",
        "userDefined": false
      },
      {
        "text": " from ",
        "userDefined": false
      },
      {
        "text": "Mumbai",
        "alias": "origin",
        "meta": "@sys.geo-city",
        "userDefined": false
      },
      {
        "text": " with ",
        "userDefined": false
      },
      {
        "text": "112",
        "alias": "passengers",
        "meta": "@sys.number",
        "userDefined": false
      },
      {
        "text": " passengers",
        "userDefined": false
      }
    ],
    "isTemplate": false,
    "count": 0,
    "updated": 0
  },
  {
    "id": "df68c35a-3463-43f9-b9cf-a8121edaacb4",
    "data": [
      {
        "text": "carbon",
        "meta": "@sys.ignore",
        "userDefined": false
      },
      {
        "text": " emissions ",
        "userDefined": false
      },
      {
        "text": "to",
        "meta": "@sys.ignore",
        "userDefined": false
      },
      {
        "text": " train journey from ",
        "userDefined": false
      },
      {
        "text": "Mumbai",
        "alias": "origin",
        "meta": "@sys.geo-city",
        "userDefined": false
      },
      {
        "text": " ",
        "userDefined": false
      },
      {
        "text": "to",
        "meta": "@sys.ignore",
        "userDefined": false
      },
      {
        "text": " ",
        "userDefined": false
      },
      {
        "text": "Pune",
        "alias": "destination",
        "meta": "@sys.geo-city",
        "userDefined": false
      },
      {
        "text": " with ",
        "userDefined": false
      },
      {
        "text": "1233",
        "alias": "passengers",
        "meta": "@sys.number",
        "userDefined": false
      },
      {
        "text": " passenger",
        "userDefined": false
      }
    ],
    "isTemplate": false,
    "count": 0,
    "updated": 0
  },
  {
    "id": "c9f82a95-3b1c-4dd9-9be0-86f7083c787d",
    "data": [
      {
        "text": "how much emissions ",
        "userDefined": false
      },
      {
        "text": "are",
        "meta": "@sys.ignore",
        "userDefined": false
      },
      {
        "text": " produced ",
        "userDefined": false
      },
      {
        "text": "due",
        "meta": "@sys.ignore",
        "userDefined": false
      },
      {
        "text": " ",
        "userDefined": false
      },
      {
        "text": "to",
        "meta": "@sys.ignore",
        "userDefined": false
      },
      {
        "text": " train journey from ",
        "userDefined": false
      },
      {
        "text": "Mumbai",
        "alias": "origin",
        "meta": "@sys.geo-city",
        "userDefined": false
      },
      {
        "text": " ",
        "userDefined": false
      },
      {
        "text": "to",
        "meta": "@sys.ignore",
        "userDefined": false
      },
      {
        "text": " ",
        "userDefined": false
      },
      {
        "text": "Pune",
        "alias": "destination",
        "meta": "@sys.geo-city",
        "userDefined": false
      },
      {
        "text": " with ",
        "userDefined": false
      },
      {
        "text": "2314",
        "alias": "passengers",
        "meta": "@sys.number",
        "userDefined": false
      },
      {
        "text": " passengers onboard?",
        "userDefined": false
      }
    ],
    "isTemplate": false,
    "count": 0,
    "updated": 0
  },
  {
    "id": "2cd4745d-71fe-4330-b294-7e2d80c1e979",
    "data": [
      {
        "text": "emissions ",
        "userDefined": false
      },
      {
        "text": "due",
        "meta": "@sys.ignore",
        "userDefined": false
      },
      {
        "text": " travel from ",
        "userDefined": false
      },
      {
        "text": "Chennai",
        "alias": "origin",
        "meta": "@sys.geo-city",
        "userDefined": false
      },
      {
        "text": " ",
        "userDefined": false
      },
      {
        "text": "to",
        "meta": "@sys.ignore",
        "userDefined": false
      },
      {
        "text": " ",
        "userDefined": false
      },
      {
        "text": "Bangalore",
        "alias": "destination",
        "meta": "@sys.geo-city",
        "userDefined": false
      },
      {
        "text": " by train",
        "userDefined": false
      }
    ],
    "isTemplate": false,
    "count": 0,
    "updated": 0
  },
  {
    "id": "4901a8c2-0690-4e95-b615-eea4e3c634f1",
    "data": [
      {
        "text": "emissions ",
        "userDefined": false
      },
      {
        "text": "for",
        "meta": "@sys.ignore",
        "userDefined": false
      },
      {
        "text": " train journey from ",
        "userDefined": false
      },
      {
        "text": "Mumbai",
        "alias": "origin",
        "meta": "@sys.geo-city",
        "userDefined": false
      },
      {
        "text": " ",
        "userDefined": false
      },
      {
        "text": "to",
        "meta": "@sys.ignore",
        "userDefined": false
      },
      {
        "text": " ",
        "userDefined": false
      },
      {
        "text": "Kolkata",
        "alias": "destination",
        "meta": "@sys.geo-city",
        "userDefined": false
      }
    ],
    "isTemplate": false,
    "count": 0,
    "updated": 0
  }
]